{
  "iisSettings": {
    "windowsAuthentication": false,
    "anonymousAuthentication": true,
    "iisExpress": {
      "applicationUrl": "http://localhost:63387",
      "sslPort": 0
    }
  },
  "$schema": "http://json.schemastore.org/launchsettings.json",
  "profiles": {
    "IIS Express": {
      "commandName": "IISExpress",
      "launchBrowser": true,
      "launchUrl": "weatherforecast",
      "environmentVariables": {
        "ASPNETCORE_ENVIRONMENT": "Development"
      }
    },
    "PredResultDbSvc": {
      "commandName": "Project",
      "launchBrowser": false,
      "launchUrl": "",
      "environmentVariables": {
        "ASPNETCORE_ENVIRONMENT": "Development",
        "INSITUDB_URL": "Data Source = tcp:127.0.0.1, 1433; Initial Catalog = InSituDB; User ID = InSitu; Password = insituanomaly; Encrypt = false",
        "COMMONDB_URL": "Data Source = tcp:127.0.0.1, 1433; Initial Catalog = CommonDb; User ID = InSitu; Password = insituanomaly; Encrypt = false",
        "RABBITMQ_URI": "amqp://schan:insituquality@localhost:5672"

      },
      "applicationUrl": "http://localhost:5004"
    },
    "Docker": {
      "commandName": "Docker",
      "launchBrowser": true,
      "launchUrl": "{Scheme}://{ServiceHost}:{ServicePort}/weatherforecast",
      "publishAllPorts": true
    }
  }
}